Account printing.hostoi.com with username a3109822 and password patrick123456 has been created!



$mysql_host         = "mysql10.000webhost.com";
$mysql_database     = "a3109822_print";
$mysql_user         = "a3109822_print";
$mysql_password     = "patrick123456";


FTP host name            printing.hostoi.com
FTP user name            a3109822
FTP password             patrick123456
Folder to upload files	public_html



